[
    {
        "prenom": "adele",
        "nom": "",
        "slug": "adele",
        "annee": "2023-2024",
        "titre": "titre",
        "description": "",
        "images": [
            {
                "url": "adele-recto",
                "description": ""
            },
            {
                "url": "adele-verso",
                "description": ""
            }
        ]
    },
    {
        "prenom": "billie",
        "nom": "",
        "slug": "billie",
        "annee": "2023-2024",
        "titre": "titre",
        "description": "",
        "images": [
            {
                "url": "billie-recto",
                "description": ""
            },
            {
                "url": "billie-verso",
                "description": ""
            }
        ]
    },
    {
        "prenom": "helene",
        "nom": "",
        "slug": "helene",
        "annee": "2023-2024",
        "titre": "titre",
        "description": "",
        "images": [
            {
                "url": "helene-recto",
                "description": ""
            },
            {
                "url": "helene-verso",
                "description": ""
            }
        ]
    },
    {
        "prenom": "iris",
        "nom": "",
        "slug": "iris",
        "annee": "2023-2024",
        "titre": "titre",
        "description": "",
        "images": [
            {
                "url": "iris-recto",
                "description": ""
            },
            {
                "url": "iris-verso",
                "description": ""
            }
        ]
    },
    {
        "prenom": "leonie",
        "nom": "",
        "slug": "leonie",
        "annee": "2023-2024",
        "titre": "titre",
        "description": "",
        "images": [
            {
                "url": "leonie-recto",
                "description": ""
            },
            {
                "url": "leonie-verso",
                "description": ""
            }
        ]
    },
    {
        "prenom": "lila",
        "nom": "",
        "slug": "lila",
        "annee": "2023-2024",
        "titre": "titre",
        "description": "",
        "images": [
            {
                "url": "lila-recto",
                "description": ""
            },
            {
                "url": "lila-verso",
                "description": ""
            }
        ]
    },
    {
        "prenom": "lucas",
        "nom": "",
        "slug": "lucas",
        "annee": "2023-2024",
        "titre": "titre",
        "description": "",
        "images": [
            {
                "url": "lucas-recto",
                "description": ""
            },
            {
                "url": "lucas-verso",
                "description": ""
            }
        ]
    },
    {
        "prenom": "maelys",
        "nom": "",
        "slug": "maelys",
        "annee": "2023-2024",
        "titre": "titre",
        "description": "",
        "images": [
            {
                "url": "maelys-recto",
                "description": ""
            },
            {
                "url": "maelys-verso",
                "description": ""
            }
        ]
    },
    {
        "prenom": "marie",
        "nom": "",
        "slug": "marie",
        "annee": "2023-2024",
        "titre": "titre",
        "description": "",
        "images": [
            {
                "url": "marie-recto",
                "description": ""
            },
            {
                "url": "marie-verso",
                "description": ""
            }
        ]
    },
    {
        "prenom": "melisande",
        "nom": "",
        "slug": "melisande",
        "annee": "2023-2024",
        "titre": "titre",
        "description": "",
        "images": [
            {
                "url": "melisande-recto",
                "description": ""
            },
            {
                "url": "melisande-verso",
                "description": ""
            }
        ]
    },
    {
        "prenom": "teodora",
        "nom": "",
        "slug": "teodora",
        "annee": "2023-2024",
        "titre": "titre",
        "description": "",
        "images": [
            {
                "url": "teodora-recto",
                "description": ""
            },
            {
                "url": "teodora-verso",
                "description": ""
            }
        ]
    },
    {
        "prenom": "thalie",
        "nom": "",
        "slug": "thalie",
        "annee": "2023-2024",
        "titre": "titre",
        "description": "",
        "images": [
            {
                "url": "thalie-recto",
                "description": ""
            },
            {
                "url": "thalie-verso",
                "description": ""
            }
        ]
    },
    {
        "prenom": "yasmine",
        "nom": "",
        "slug": "yasmine",
        "annee": "2023-2024",
        "titre": "titre",
        "description": "",
        "images": [
            {
                "url": "yasmine-recto",
                "description": ""
            },
            {
                "url": "yasmine-verso",
                "description": ""
            }
        ]
    },
    {
        "prenom": "prenom",
        "nom": "nom",
        "slug": "slug",
        "annee": "2023-2024",
        "titre": "titre",
        "description": "",
        "images": [
            {
                "url": "prenom-recto",
                "description": ""
            },
            {
                "url": "prenom-verso",
                "description": ""
            }
        ]
    },
    {
        "prenom": "prenom",
        "nom": "nom",
        "slug": "slug",
        "annee": "2023-2024",
        "titre": "titre",
        "description": "",
        "images": [
            {
                "url": "prenom-recto",
                "description": ""
            },
            {
                "url": "prenom-verso",
                "description": ""
            }
        ]
    },
    {
        "prenom": "prenom",
        "nom": "nom",
        "slug": "slug",
        "annee": "2023-2024",
        "titre": "titre",
        "description": "",
        "images": [
            {
                "url": "prenom-recto",
                "description": ""
            },
            {
                "url": "prenom-verso",
                "description": ""
            }
        ]
    },
    {
        "prenom": "prenom",
        "nom": "nom",
        "slug": "slug",
        "annee": "2023-2024",
        "titre": "titre",
        "description": "",
        "images": [
            {
                "url": "prenom-recto",
                "description": ""
            },
            {
                "url": "prenom-verso",
                "description": ""
            }
        ]
    },
    {
        "prenom": "prenom",
        "nom": "nom",
        "slug": "slug",
        "annee": "2023-2024",
        "titre": "titre",
        "description": "",
        "images": [
            {
                "url": "prenom-recto",
                "description": ""
            },
            {
                "url": "prenom-verso",
                "description": ""
            }
        ]
    },
    {
        "prenom": "prenom",
        "nom": "nom",
        "slug": "slug",
        "annee": "2023-2024",
        "titre": "titre",
        "description": "",
        "images": [
            {
                "url": "prenom-recto",
                "description": ""
            },
            {
                "url": "prenom-verso",
                "description": ""
            }
        ]
    },
    {
        "prenom": "prenom",
        "nom": "nom",
        "slug": "slug",
        "annee": "2023-2024",
        "titre": "titre",
        "description": "",
        "images": [
            {
                "url": "prenom-recto",
                "description": ""
            },
            {
                "url": "prenom-verso",
                "description": ""
            }
        ]
    },
    {
        "prenom": "prenom",
        "nom": "nom",
        "slug": "slug",
        "annee": "2023-2024",
        "titre": "titre",
        "description": "",
        "images": [
            {
                "url": "prenom-recto",
                "description": ""
            },
            {
                "url": "prenom-verso",
                "description": ""
            }
        ]
    },
    {
        "prenom": "prenom",
        "nom": "nom",
        "slug": "slug",
        "annee": "2023-2024",
        "titre": "titre",
        "description": "",
        "images": [
            {
                "url": "prenom-recto",
                "description": ""
            },
            {
                "url": "prenom-verso",
                "description": ""
            }
        ]
    },
    {
        "prenom": "prenom",
        "nom": "nom",
        "slug": "slug",
        "annee": "2023-2024",
        "titre": "titre",
        "description": "",
        "images": [
            {
                "url": "prenom-recto",
                "description": ""
            },
            {
                "url": "prenom-verso",
                "description": ""
            }
        ]
    },
    {
        "prenom": "prenom",
        "nom": "nom",
        "slug": "slug",
        "annee": "2023-2024",
        "titre": "titre",
        "description": "",
        "images": [
            {
                "url": "prenom-recto",
                "description": ""
            },
            {
                "url": "prenom-verso",
                "description": ""
            }
        ]
    },
    {
        "prenom": "prenom",
        "nom": "nom",
        "slug": "slug",
        "annee": "2023-2024",
        "titre": "titre",
        "description": "",
        "images": [
            {
                "url": "prenom-recto",
                "description": ""
            },
            {
                "url": "prenom-verso",
                "description": ""
            }
        ]
    },
    {
        "prenom": "prenom",
        "nom": "nom",
        "slug": "slug",
        "annee": "2023-2024",
        "titre": "titre",
        "description": "",
        "images": [
            {
                "url": "prenom-recto",
                "description": ""
            },
            {
                "url": "prenom-verso",
                "description": ""
            }
        ]
    },
    {
        "prenom": "prenom",
        "nom": "nom",
        "slug": "slug",
        "annee": "2023-2024",
        "titre": "titre",
        "description": "",
        "images": [
            {
                "url": "prenom-recto",
                "description": ""
            },
            {
                "url": "prenom-verso",
                "description": ""
            }
        ]
    },
    {
        "prenom": "prenom",
        "nom": "nom",
        "slug": "slug",
        "annee": "2023-2024",
        "titre": "titre",
        "description": "",
        "images": [
            {
                "url": "prenom-recto",
                "description": ""
            },
            {
                "url": "prenom-verso",
                "description": ""
            }
        ]
    },
    {
        "prenom": "prenom",
        "nom": "nom",
        "slug": "slug",
        "annee": "2023-2024",
        "titre": "titre",
        "description": "",
        "images": [
            {
                "url": "prenom-recto",
                "description": ""
            },
            {
                "url": "prenom-verso",
                "description": ""
            }
        ]
    },
    {
        "prenom": "prenom",
        "nom": "nom",
        "slug": "slug",
        "annee": "2023-2024",
        "titre": "titre",
        "description": "",
        "images": [
            {
                "url": "prenom-recto",
                "description": ""
            },
            {
                "url": "prenom-verso",
                "description": ""
            }
        ]
    },
]